<?xml version="1.0" encoding="UTF-8"?>
<glyph name="l3k1u1" format="2">
	<advance width="1457"/>
	<outline>
		<component base="l3"/>
		<component base="_k1u1" xOffset="286" yOffset="12"/>
	</outline>
</glyph>
