<?xml version="1.0" encoding="UTF-8"?>
<glyph name="lhlh" format="2">
	<advance height="2048" width="2590"/>
	<outline>
		<contour>
			<point x="2380" y="-412" type="line" smooth="yes"/>
			<point x="2425" y="-412"/>
			<point x="2462" y="-381"/>
			<point x="2462" y="-343" type="curve" smooth="yes"/>
			<point x="2462" y="-305"/>
			<point x="2425" y="-274"/>
			<point x="2380" y="-274" type="curve" smooth="yes"/>
			<point x="1640" y="-274" type="line" smooth="yes"/>
			<point x="1569" y="-274"/>
			<point x="1507" y="-233"/>
			<point x="1507" y="-158" type="curve" smooth="yes"/>
			<point x="1507" y="-79"/>
			<point x="1568" y="-41"/>
			<point x="1640" y="-41" type="curve" smooth="yes"/>
			<point x="2098" y="-42" type="line" smooth="yes"/>
			<point x="2280" y="-43"/>
			<point x="2510" y="17"/>
			<point x="2510" y="241" type="curve" smooth="yes"/>
			<point x="2510" y="349"/>
			<point x="2445" y="422"/>
			<point x="2359" y="466" type="curve"/>
			<point x="2441" y="507"/>
			<point x="2498" y="578"/>
			<point x="2498" y="673" type="curve" smooth="yes"/>
			<point x="2498" y="773"/>
			<point x="2435" y="863"/>
			<point x="2351" y="912" type="curve" smooth="yes"/>
			<point x="2241" y="977"/>
			<point x="2092" y="1000"/>
			<point x="1952" y="1000" type="curve" smooth="yes"/>
			<point x="1756" y="1000"/>
			<point x="1523" y="968"/>
			<point x="1408" y="788" type="curve" smooth="yes"/>
			<point x="1363" y="718"/>
			<point x="1343" y="633"/>
			<point x="1343" y="550" type="curve"/>
			<point x="1342" y="460"/>
			<point x="1359" y="368"/>
			<point x="1417" y="296" type="curve" smooth="yes"/>
			<point x="1479" y="218"/>
			<point x="1568" y="188"/>
			<point x="1665" y="188" type="curve" smooth="yes"/>
			<point x="1752" y="188"/>
			<point x="1841" y="216"/>
			<point x="1903" y="278" type="curve" smooth="yes"/>
			<point x="1951" y="326"/>
			<point x="1981" y="392"/>
			<point x="1981" y="463" type="curve" smooth="yes"/>
			<point x="1981" y="554"/>
			<point x="1945" y="624"/>
			<point x="1888" y="672" type="curve" smooth="yes"/>
			<point x="1831" y="718"/>
			<point x="1757" y="740"/>
			<point x="1684" y="740" type="curve" smooth="yes"/>
			<point x="1621" y="740"/>
			<point x="1564" y="725"/>
			<point x="1515" y="684" type="curve"/>
			<point x="1529" y="769"/>
			<point x="1597" y="823"/>
			<point x="1664" y="857" type="curve" smooth="yes"/>
			<point x="1751" y="901"/>
			<point x="1855" y="909"/>
			<point x="1952" y="909" type="curve" smooth="yes"/>
			<point x="2053" y="909"/>
			<point x="2160" y="893"/>
			<point x="2233" y="850" type="curve" smooth="yes"/>
			<point x="2297" y="812"/>
			<point x="2336" y="741"/>
			<point x="2336" y="673" type="curve" smooth="yes"/>
			<point x="2336" y="629"/>
			<point x="2319" y="586"/>
			<point x="2283" y="555" type="curve" smooth="yes"/>
			<point x="2244" y="522"/>
			<point x="2193" y="512"/>
			<point x="2144" y="512" type="curve" smooth="yes"/>
			<point x="2099" y="512"/>
			<point x="2063" y="491"/>
			<point x="2063" y="466" type="curve" smooth="yes"/>
			<point x="2063" y="441"/>
			<point x="2099" y="420"/>
			<point x="2144" y="420" type="curve" smooth="yes"/>
			<point x="2191" y="420"/>
			<point x="2230" y="413"/>
			<point x="2270" y="387" type="curve" smooth="yes"/>
			<point x="2317" y="355"/>
			<point x="2347" y="304"/>
			<point x="2347" y="241" type="curve" smooth="yes"/>
			<point x="2347" y="94"/>
			<point x="2224" y="49"/>
			<point x="2098" y="49" type="curve" smooth="yes"/>
			<point x="1640" y="49" type="line" smooth="yes"/>
			<point x="1498" y="49"/>
			<point x="1343" y="-22"/>
			<point x="1343" y="-181" type="curve" smooth="yes"/>
			<point x="1343" y="-217"/>
			<point x="1349" y="-248"/>
			<point x="1361" y="-274" type="curve"/>
			<point x="377" y="-274" type="line" smooth="yes"/>
			<point x="306" y="-274"/>
			<point x="244" y="-233"/>
			<point x="244" y="-158" type="curve" smooth="yes"/>
			<point x="244" y="-79"/>
			<point x="305" y="-41"/>
			<point x="377" y="-41" type="curve" smooth="yes"/>
			<point x="835" y="-42" type="line" smooth="yes"/>
			<point x="1017" y="-43"/>
			<point x="1247" y="17"/>
			<point x="1247" y="241" type="curve" smooth="yes"/>
			<point x="1247" y="349"/>
			<point x="1182" y="422"/>
			<point x="1096" y="466" type="curve"/>
			<point x="1178" y="507"/>
			<point x="1235" y="578"/>
			<point x="1235" y="673" type="curve" smooth="yes"/>
			<point x="1235" y="773"/>
			<point x="1172" y="863"/>
			<point x="1088" y="912" type="curve" smooth="yes"/>
			<point x="978" y="977"/>
			<point x="829" y="1000"/>
			<point x="689" y="1000" type="curve" smooth="yes"/>
			<point x="493" y="1000"/>
			<point x="260" y="968"/>
			<point x="145" y="788" type="curve" smooth="yes"/>
			<point x="100" y="718"/>
			<point x="81" y="633"/>
			<point x="80" y="550" type="curve" smooth="yes"/>
			<point x="79" y="460"/>
			<point x="97" y="368"/>
			<point x="154" y="296" type="curve" smooth="yes"/>
			<point x="216" y="218"/>
			<point x="305" y="188"/>
			<point x="402" y="188" type="curve" smooth="yes"/>
			<point x="489" y="188"/>
			<point x="578" y="216"/>
			<point x="640" y="278" type="curve" smooth="yes"/>
			<point x="689" y="326"/>
			<point x="718" y="392"/>
			<point x="718" y="463" type="curve" smooth="yes"/>
			<point x="718" y="554"/>
			<point x="683" y="624"/>
			<point x="625" y="672" type="curve" smooth="yes"/>
			<point x="569" y="718"/>
			<point x="494" y="740"/>
			<point x="421" y="740" type="curve" smooth="yes"/>
			<point x="358" y="740"/>
			<point x="301" y="725"/>
			<point x="252" y="684" type="curve"/>
			<point x="266" y="769"/>
			<point x="334" y="823"/>
			<point x="401" y="857" type="curve" smooth="yes"/>
			<point x="489" y="901"/>
			<point x="593" y="909"/>
			<point x="689" y="909" type="curve" smooth="yes"/>
			<point x="790" y="909"/>
			<point x="897" y="893"/>
			<point x="970" y="850" type="curve" smooth="yes"/>
			<point x="1034" y="812"/>
			<point x="1073" y="741"/>
			<point x="1073" y="673" type="curve" smooth="yes"/>
			<point x="1073" y="629"/>
			<point x="1056" y="586"/>
			<point x="1020" y="555" type="curve" smooth="yes"/>
			<point x="982" y="522"/>
			<point x="930" y="512"/>
			<point x="881" y="512" type="curve" smooth="yes"/>
			<point x="836" y="512"/>
			<point x="800" y="491"/>
			<point x="800" y="466" type="curve" smooth="yes"/>
			<point x="800" y="441"/>
			<point x="836" y="420"/>
			<point x="881" y="420" type="curve" smooth="yes"/>
			<point x="928" y="420"/>
			<point x="968" y="413"/>
			<point x="1007" y="387" type="curve" smooth="yes"/>
			<point x="1055" y="355"/>
			<point x="1084" y="304"/>
			<point x="1084" y="241" type="curve" smooth="yes"/>
			<point x="1084" y="94"/>
			<point x="962" y="49"/>
			<point x="835" y="49" type="curve" smooth="yes"/>
			<point x="377" y="49" type="line" smooth="yes"/>
			<point x="235" y="49"/>
			<point x="80" y="-22"/>
			<point x="80" y="-181" type="curve" smooth="yes"/>
			<point x="80" y="-351"/>
			<point x="231" y="-412"/>
			<point x="377" y="-412" type="curve" smooth="yes"/>
		</contour>
		<contour>
			<point x="404" y="283" type="curve" smooth="yes"/>
			<point x="304" y="283"/>
			<point x="256" y="374"/>
			<point x="256" y="464" type="curve" smooth="yes"/>
			<point x="256" y="553"/>
			<point x="306" y="643"/>
			<point x="404" y="643" type="curve" smooth="yes"/>
			<point x="503" y="643"/>
			<point x="552" y="553"/>
			<point x="552" y="463" type="curve" smooth="yes"/>
			<point x="552" y="373"/>
			<point x="502" y="283"/>
		</contour>
		<contour>
			<point x="1667" y="283" type="curve" smooth="yes"/>
			<point x="1566" y="283"/>
			<point x="1519" y="374"/>
			<point x="1519" y="464" type="curve" smooth="yes"/>
			<point x="1519" y="553"/>
			<point x="1569" y="643"/>
			<point x="1667" y="643" type="curve" smooth="yes"/>
			<point x="1766" y="643"/>
			<point x="1815" y="553"/>
			<point x="1815" y="463" type="curve" smooth="yes"/>
			<point x="1815" y="373"/>
			<point x="1765" y="283"/>
		</contour>
	</outline>
</glyph>
