<?xml version="1.0" encoding="UTF-8"?>
<glyph name="p1p1r1" format="2">
	<advance width="1564"/>
	<outline>
		<component base="p1p1"/>
		<component base="vocalic_r_sign_drop" xOffset="457"/>
	</outline>
	<lib>
		<dict>
			<key>org.fontforge.glyphclass</key>
			<string>baseligature</string>
		</dict>
	</lib>
</glyph>
