<?xml version="1.0" encoding="UTF-8"?>
<glyph name="rh" format="2">
	<unicode hex="0D31"/>
	<advance height="2048" width="1252"/>
	<outline>
		<contour>
			<point x="819" y="-24" type="curve" smooth="yes"/>
			<point x="842" y="-24"/>
			<point x="866" y="-18"/>
			<point x="886" y="-8" type="curve" smooth="yes"/>
			<point x="1064" y="84"/>
			<point x="1172" y="265"/>
			<point x="1172" y="464" type="curve" smooth="yes"/>
			<point x="1172" y="768"/>
			<point x="927" y="1000"/>
			<point x="626" y="1000" type="curve" smooth="yes"/>
			<point x="326" y="1000"/>
			<point x="80" y="769"/>
			<point x="80" y="464" type="curve" smooth="yes"/>
			<point x="80" y="264"/>
			<point x="191" y="81"/>
			<point x="369" y="-9" type="curve" smooth="yes"/>
			<point x="388" y="-19"/>
			<point x="410" y="-24"/>
			<point x="432" y="-24" type="curve" smooth="yes"/>
			<point x="453" y="-24"/>
			<point x="473" y="-19"/>
			<point x="490" y="-8" type="curve" smooth="yes"/>
			<point x="504" y="1"/>
			<point x="510" y="11"/>
			<point x="510" y="22" type="curve" smooth="yes"/>
			<point x="510" y="35"/>
			<point x="500" y="48"/>
			<point x="483" y="56" type="curve" smooth="yes"/>
			<point x="320" y="137"/>
			<point x="243" y="296"/>
			<point x="243" y="464" type="curve" smooth="yes"/>
			<point x="244" y="683"/>
			<point x="379" y="909"/>
			<point x="626" y="909" type="curve" smooth="yes"/>
			<point x="871" y="909"/>
			<point x="1008" y="689"/>
			<point x="1008" y="464" type="curve" smooth="yes"/>
			<point x="1008" y="298"/>
			<point x="932" y="136"/>
			<point x="769" y="56" type="curve" smooth="yes"/>
			<point x="752" y="48"/>
			<point x="742" y="35"/>
			<point x="742" y="22" type="curve" smooth="yes"/>
			<point x="742" y="11"/>
			<point x="748" y="1"/>
			<point x="762" y="-8" type="curve" smooth="yes"/>
			<point x="779" y="-19"/>
			<point x="799" y="-24"/>
		</contour>
	</outline>
</glyph>
