<?xml version="1.0" encoding="UTF-8"?>
<glyph name="y1k1k1u2" format="2">
	<advance width="1790.0126960842"/>
	<outline>
		<component base="y1"/>
		<component base="_k1k1u2" xOffset="176"/>
	</outline>
</glyph>
