<?xml version="1.0" encoding="UTF-8"?>
<glyph name="r4" format="2">
	<advance height="2048" width="559"/>
	<outline>
		<contour>
			<point x="477" y="-295" type="curve" smooth="yes"/>
			<point x="563" y="-295"/>
			<point x="663" y="-277"/>
			<point x="739" y="-238" type="curve" smooth="yes"/>
			<point x="752" y="-231"/>
			<point x="759" y="-222"/>
			<point x="759" y="-212" type="curve" smooth="yes"/>
			<point x="759" y="-204"/>
			<point x="753" y="-196"/>
			<point x="743" y="-189" type="curve" smooth="yes"/>
			<point x="731" y="-181"/>
			<point x="714" y="-177"/>
			<point x="698" y="-177" type="curve" smooth="yes"/>
			<point x="683" y="-177"/>
			<point x="668" y="-180"/>
			<point x="657" y="-186" type="curve" smooth="yes"/>
			<point x="605" y="-212"/>
			<point x="539" y="-225"/>
			<point x="480" y="-225" type="curve" smooth="yes"/>
			<point x="423" y="-225"/>
			<point x="362" y="-213"/>
			<point x="320" y="-173" type="curve" smooth="yes"/>
			<point x="228" y="-82"/>
			<point x="222" y="105"/>
			<point x="222" y="229" type="curve" smooth="yes"/>
			<point x="222" y="361"/>
			<point x="236" y="499"/>
			<point x="260" y="626" type="curve" smooth="yes"/>
			<point x="279" y="736"/>
			<point x="310" y="854"/>
			<point x="362" y="953" type="curve"/>
			<point x="364" y="958"/>
			<point x="366" y="963"/>
			<point x="366" y="968" type="curve" smooth="yes"/>
			<point x="366" y="992"/>
			<point x="328" y="1002"/>
			<point x="308" y="1002" type="curve" smooth="yes"/>
			<point x="287" y="1002"/>
			<point x="261" y="997"/>
			<point x="248" y="980" type="curve" smooth="yes"/>
			<point x="195" y="905"/>
			<point x="155" y="715"/>
			<point x="138" y="624" type="curve" smooth="yes"/>
			<point x="115" y="495"/>
			<point x="100" y="359"/>
			<point x="100" y="227" type="curve" smooth="yes"/>
			<point x="100" y="85"/>
			<point x="106" y="-103"/>
			<point x="214" y="-208" type="curve" smooth="yes"/>
			<point x="281" y="-272"/>
			<point x="386" y="-295"/>
		</contour>
	</outline>
</glyph>
