<?xml version="1.0" encoding="UTF-8"?>
<glyph name="Nacute" format="2">
	<unicode hex="0143"/>
	<advance width="1398"/>
	<outline>
		<component base="acute" xOffset="371.1869158879" yOffset="382.5088265836"/>
		<component base="N"/>
	</outline>
</glyph>
