<?xml version="1.0" encoding="UTF-8"?>
<glyph name="sht1r3" format="2">
	<advance width="1937"/>
	<outline>
		<component base="sh"/>
		<component base="_t1r3" xOffset="990" yOffset="12"/>
	</outline>
	<lib>
		<dict>
			<key>org.fontforge.glyphclass</key>
			<string>baseligature</string>
		</dict>
	</lib>
</glyph>
